01_tabla_POS/tabla01pos_tb.vcd
$date
	Fri Jul 31 23:58:44 2020
$end
$version
	Icarus Verilog
$end
$timescale
	1ps
$end
$scope module tabla01pos $end
$var wire 1 ! Y $end
$var wire 1 " nA $end
$var wire 1 # nB $end
$var wire 1 $ nC $end
$var wire 1 % o1 $end
$var wire 1 & o2 $end
$var wire 1 ' o3 $end
$var reg 1 ( A $end
$var reg 1 ) B $end
$var reg 1 * C $end
$upscope $end
$enddefinitions $end
#0
$dumpvars
0*
0)
0(
1'
1&
1%
1$
1#
1"
1!
$end
#1
0!
0%
0$
1*
#2
1!
1$
1%
0#
0*
1)
#3
0!
0&
0$
1*
#4
1!
1$
1#
1&
0"
0*
0)
1(
#5
0$
1*
#6
0!
0'
1$
0#
0*
1)
#7
1!
1'
0$
1*
